{
    "gulp": {
        "sass": [
            "Sass/**/*.scss"
        ],
        "javascript": [
            "JavaScript/*"
        ]
    },
    "overrides": {
        "suitecommerce/ItemRelations@2.1.0/JavaScript/ItemRelations.Correlated.View.js": "JavaScript/ItemRelations.Correlated.View.js"
    ,   "suitecommerce/ItemRelations@2.1.0/JavaScript/ItemRelations.Related.View.js": "JavaScript/ItemRelations.Related.View.js"
    ,   "suitecommerce/ItemRelations@2.1.0/Templates/item_relations_related.tpl": "Templates/item_relations_related.tpl"
    }
}
