{
    "gulp": {
        "sass": [
            "Sass/**/*.scss"
        ],
        "templates": [
            "Templates/*"
        ],
        "javascript": [
            "JavaScript/*"
        ]
    },
    "overrides": {
       "suitecommerce/ItemDetails@2.2.1/Templates/item_details.tpl": "Templates/item_details.tpl"
    ,  "suitecommerce/ItemDetails@2.2.1/Templates/quick_view.tpl": "Templates/quick_view.tpl"

    ,  "suitecommerce/ItemDetails@2.2.1/JavaScript/ItemDetails.View.js": "JavaScript/ItemDetails.View.js"
    }
}
