<?xml version="1.0" encoding="UTF-8" standalone="no"?>
<svg width="16px" height="15px" viewBox="0 0 16 15" version="1.1" xmlns="http://www.w3.org/2000/svg" xmlns:xlink="http://www.w3.org/1999/xlink">
    <!-- Generator: Sketch 42 (36781) - http://www.bohemiancoding.com/sketch -->
    <title>linkedin</title>
    <desc>Created with Sketch.</desc>
    <defs></defs>
    <g id="Website-V1" stroke="none" stroke-width="1" fill="none" fill-rule="evenodd" font-size="18" font-family="FontAwesome" font-weight="normal">
        <g id="Navigation" transform="translate(-126.000000, -1656.000000)" fill="#004680">
            <text id="linkedin">
                <tspan x="126" y="1670"></tspan>
            </text>
        </g>
    </g>
</svg>